1 Hydrogen H 1.008
2 Helium He 4.003
3 Litium Li 6.939
4 Beryllium Be 9.012
5 Bor B 10.811
6 Karbon C 12.011
7 Nitrogen N 14.007
8 Oksygen O 15.998
9 Fluor F 18.998
10 Neon Ne 20.183
36 Krypton Kr 83.8
